<?xml version="1.0" encoding="iso-8859-1"?>
<!-- Generator: Adobe Illustrator 19.0.0, SVG Export Plug-In . SVG Version: 6.00 Build 0)  -->
<svg version="1.1" id="Capa_1" xmlns="http://www.w3.org/2000/svg" xmlns:xlink="http://www.w3.org/1999/xlink" x="0px" y="0px"
	 viewBox="0 0 490 490" style="enable-background:new 0 0 490 490;" xml:space="preserve">
<g>
	<path d="M260.317,0h-30.625v38.079H0v55.893h31.826v296.627h90.679V490h30.625v-45.877h183.75V490h30.625v-99.401h90.664V93.972
		H490V38.079H260.317V0z M336.88,413.538H153.13v-22.939h183.75V413.538z M427.543,360.014H62.451V93.972h365.092V360.014z"/>
	<path d="M123.876,216.208c2.512-1.762,6.011-2.643,10.498-2.643c6.639,0,11.155,1.031,13.548,3.091
		c2.393,2.061,3.589,5.511,3.589,10.349v2.509c-4.546,1.911-12.711,3.972-24.494,6.183c-8.733,1.673-15.417,3.629-20.053,5.869
		c-4.636,2.24-8.239,5.466-10.812,9.677c-2.572,4.211-3.858,9.005-3.858,14.381c0,8.124,2.826,14.844,8.479,20.161
		c5.653,5.316,13.383,7.975,23.193,7.975c5.563,0,10.797-1.045,15.701-3.136c4.905-2.091,9.51-5.227,13.817-9.408
		c0.179,0.478,0.479,1.464,0.897,2.957c0.957,3.285,1.764,5.764,2.423,7.437h24.943c-2.213-4.54-3.723-8.796-4.531-12.769
		c-0.807-3.972-1.211-10.14-1.211-18.503l0.269-29.39c0-10.932-1.122-18.443-3.365-22.535c-2.243-4.092-6.116-7.467-11.619-10.125
		c-5.503-2.658-13.877-3.987-25.122-3.987c-12.382,0-21.713,2.21-27.993,6.631c-6.281,4.42-10.707,11.23-13.279,20.43l22.879,4.122
		C119.33,221.062,121.363,217.97,123.876,216.208z M151.51,250.93c0,6.033-0.329,10.125-0.987,12.276
		c-0.957,3.285-2.961,6.063-6.011,8.333c-4.127,2.987-8.464,4.48-13.01,4.48c-4.067,0-7.417-1.284-10.049-3.853
		c-2.632-2.569-3.948-5.615-3.948-9.14c0-3.584,1.645-6.541,4.935-8.871c2.153-1.434,6.729-2.897,13.727-4.391
		c6.998-1.493,12.112-2.778,15.342-3.853V250.93z"/>
	<path d="M223.467,277.632c3.828,5.316,8.389,9.334,13.683,12.052c5.294,2.718,10.662,4.077,16.105,4.077
		c11.066,0,20.471-4.391,28.217-13.172c7.746-8.781,11.619-21.296,11.619-37.544c0-15.711-3.798-27.762-11.395-36.155
		c-7.596-8.393-17.197-12.589-28.801-12.589c-10.647,0-19.858,4.421-27.634,13.262V160.25h-25.212v131.36h23.417V277.632z
		 M231.093,220.599c4.008-4.689,9.032-7.034,15.073-7.034c6.161,0,11.215,2.404,15.163,7.213c3.948,4.809,5.922,12.649,5.922,23.521
		c0,10.215-1.959,17.697-5.877,22.446c-3.918,4.749-8.658,7.124-14.221,7.124c-7.238,0-13.04-3.345-17.406-10.036
		c-3.11-4.719-4.665-12.007-4.665-21.863C225.082,232.412,227.086,225.288,231.093,220.599z"/>
	<path d="M353.563,293.76c12.262,0,22.042-2.897,29.339-8.692c7.297-5.794,12.232-14.367,14.804-25.716l-24.763-4.211
		c-1.256,6.631-3.409,11.305-6.46,14.023c-3.051,2.718-6.968,4.077-11.754,4.077c-6.4,0-11.499-2.33-15.297-6.989
		c-3.798-4.659-5.697-12.634-5.697-23.924c0-10.155,1.869-17.398,5.608-21.729c3.738-4.331,8.748-6.496,15.028-6.496
		c4.725,0,8.568,1.254,11.529,3.763c2.961,2.509,4.86,6.242,5.697,11.201l24.853-4.48c-2.991-10.215-7.911-17.816-14.759-22.804
		c-6.849-4.988-16.075-7.482-27.679-7.482c-14.176,0-25.421,4.376-33.735,13.127c-8.314,8.751-12.471,20.982-12.471,36.693
		c0,15.531,4.142,27.688,12.426,36.469C328.516,289.37,339.626,293.76,353.563,293.76z"/>
</g>
<g>
</g>
<g>
</g>
<g>
</g>
<g>
</g>
<g>
</g>
<g>
</g>
<g>
</g>
<g>
</g>
<g>
</g>
<g>
</g>
<g>
</g>
<g>
</g>
<g>
</g>
<g>
</g>
<g>
</g>
</svg>
