<?xml version="1.0" encoding="iso-8859-1"?>
<!-- Generator: Adobe Illustrator 22.1.0, SVG Export Plug-In . SVG Version: 6.00 Build 0)  -->
<svg version="1.1" id="Layer_1" xmlns="http://www.w3.org/2000/svg" xmlns:xlink="http://www.w3.org/1999/xlink" x="0px" y="0px"
	 viewBox="0 0 231.33 165.142" style="enable-background:new 0 0 231.33 165.142;" xml:space="preserve">
<g>
	<defs>
		<rect id="SVGID_1_" width="231.33" height="165.142"/>
	</defs>
	<clipPath id="SVGID_2_">
		<use xlink:href="#SVGID_1_"  style="overflow:visible;"/>
	</clipPath>
	<path style="clip-path:url(#SVGID_2_);" d="M230.898,80.556L183.116,1.449c-0.836-1.384-2.618-1.856-4.031-1.068l-24.271,13.561
		c-0.708,0.396-1.226,1.061-1.435,1.845c-0.21,0.783-0.093,1.618,0.324,2.315l4.211,7.034c-0.925,0.81-2.531,1.896-5.006,2.541
		l-38.204-13.376c-1.228-0.55-8.302-3.452-14.961-0.573c-4.388,1.897-7.534,5.765-9.351,11.496c-0.411,1.297-0.722,2.682-0.98,4.36
		c-0.154,1.01-0.536,2.702-1.104,4.922c-0.118,0.002-0.235-0.004-0.355,0.012c-1.735,0.231-3.538,0.43-4.82,0.134
		c-3.365-0.784-4.692-1.594-5.154-1.962c0.004-0.437-0.107-0.861-0.285-1.257l2.74-3.806c0.945-1.312,0.68-3.138-0.6-4.127l-22-17
		c-0.642-0.496-1.459-0.709-2.26-0.596c-0.803,0.116-1.525,0.551-2.002,1.207l-53,73c-0.9,1.241-0.721,2.96,0.415,3.988l21,19
		c0.554,0.501,1.273,0.775,2.013,0.775c0.105,0,0.211-0.005,0.316-0.016c0.849-0.091,1.619-0.538,2.118-1.231l5.35-7.431
		l2.038,1.422c-4.091,4.254-4.892,10.917-1.545,16.077c2.486,3.834,6.666,5.923,10.927,5.923c0.967,0,1.936-0.112,2.891-0.331
		c-0.586,3.267,0.06,6.574,1.865,9.357c1.884,2.905,4.796,4.904,8.199,5.629c0.917,0.195,1.838,0.292,2.752,0.292
		c0.967,0,1.925-0.111,2.861-0.325c-0.56,3.135,0.006,6.477,1.871,9.353c2.487,3.834,6.666,5.923,10.928,5.923
		c0.966,0,1.936-0.113,2.892-0.331c-0.588,3.267,0.059,6.574,1.864,9.358c1.883,2.904,4.795,4.903,8.199,5.629
		c0.917,0.195,1.838,0.292,2.752,0.292c2.481,0,4.907-0.712,7.029-2.088l17.428-11.302c0.199,0.306,0.453,0.583,0.769,0.808
		l16.728,11.889c2.214,1.559,4.798,2.371,7.455,2.371c0.771,0,1.549-0.068,2.324-0.207c3.466-0.618,6.475-2.553,8.473-5.449
		c1.891-2.739,2.632-6.125,2.294-9.471c1.055,0.275,2.141,0.422,3.242,0.422c0.771,0,1.548-0.068,2.324-0.206
		c3.465-0.619,6.474-2.554,8.473-5.45c1.891-2.74,2.633-6.126,2.298-9.469c1.054,0.273,2.139,0.42,3.238,0.42
		c0.771,0,1.548-0.068,2.324-0.207c3.465-0.618,6.474-2.553,8.472-5.449c1.919-2.779,2.673-6.138,2.325-9.462
		c1.045,0.269,2.121,0.413,3.211,0.413c0.771,0,1.548-0.068,2.324-0.207c3.465-0.618,6.474-2.553,8.473-5.449
		c4.115-5.962,2.659-14.197-3.267-18.371l-2.685-1.856l5.073-2.035l1.434,2.395c0.558,0.932,1.55,1.46,2.576,1.46
		c0.422,0,0.849-0.09,1.254-0.276l25.719-11.856c0.775-0.357,1.362-1.028,1.612-1.845C231.448,82.172,231.339,81.287,230.898,80.556
		 M23.525,96.399L7.01,81.457l49.602-68.319l17.259,13.337L35.888,79.228l-7.455,9.828c-0.29,0.382-0.467,0.827-0.549,1.29
		L23.525,96.399z M37.311,109.431c-2.1-3.238-1.175-7.582,2.064-9.682l23.492-15.236c1.559-1.011,3.429-1.354,5.266-0.961
		c1.836,0.392,3.404,1.466,4.416,3.025c1.011,1.56,1.353,3.43,0.961,5.266c-0.392,1.836-1.466,3.405-3.025,4.416l-23.492,15.236
		C43.752,113.594,39.41,112.668,37.311,109.431 M57.41,127.405c-1.836-0.392-3.404-1.466-4.416-3.025
		c-1.011-1.56-1.353-3.43-0.961-5.266s1.466-3.405,3.025-4.416L78.55,99.462c1.174-0.761,2.493-1.125,3.798-1.125
		c2.295,0,4.545,1.125,5.884,3.189c2.1,3.238,1.174,7.582-2.064,9.682l-23.492,15.236C61.116,127.455,59.246,127.796,57.41,127.405
		 M73.094,142.354c-1.837-0.391-3.405-1.466-4.417-3.025c-1.011-1.56-1.352-3.43-0.961-5.266c0.392-1.836,1.466-3.405,3.025-4.416
		l23.493-15.236c1.138-0.738,2.441-1.119,3.776-1.119c0.494,0,0.993,0.052,1.489,0.158c1.837,0.391,3.405,1.466,4.416,3.025
		c2.1,3.239,1.175,7.582-2.064,9.682L78.36,141.393C76.8,142.404,74.929,142.746,73.094,142.354 M94.043,156.342
		c-1.56,1.012-3.429,1.353-5.266,0.961c-1.836-0.391-3.405-1.465-4.416-3.025c-1.012-1.56-1.353-3.43-0.961-5.266
		c0.391-1.836,1.465-3.404,3.025-4.416l23.492-15.235c1.174-0.762,2.493-1.125,3.798-1.125c2.295,0,4.545,1.124,5.884,3.188
		c2.1,3.239,1.174,7.583-2.064,9.683L94.043,156.342z M194.544,111.963c-1.082,1.568-2.712,2.616-4.589,2.951
		c-1.862,0.332-3.733-0.082-5.27-1.164l-3.932-2.77c-0.004-0.002-0.008-0.005-0.012-0.008l-19.239-13.55
		c-1.354-0.955-3.226-0.63-4.18,0.725c-0.954,1.354-0.629,3.226,0.725,4.18l18.952,13.348c2.84,3.183,3.373,7.863,1.212,10.993
		c-1.082,1.568-2.711,2.616-4.588,2.95c-1.863,0.332-3.734-0.08-5.241-1.142l-21.314-15.397c-1.343-0.97-3.219-0.669-4.189,0.675
		c-0.97,1.343-0.668,3.218,0.675,4.188l13.671,9.876c0.165,0.197,0.347,0.383,0.567,0.538l3.041,2.142
		c2.368,2.745,3.396,7.47,1.046,10.875c-1.082,1.568-2.712,2.616-4.589,2.951c-1.863,0.331-3.734-0.081-5.27-1.164l-3.804-2.679
		l-12.455-9.035c-1.34-0.974-3.216-0.675-4.189,0.666c-0.974,1.342-0.675,3.218,0.666,4.19l10.472,7.597
		c0.086,0.077,0.165,0.158,0.261,0.226l1.505,1.06c2.382,2.751,3.423,7.485,1.07,10.893c-1.082,1.568-2.712,2.616-4.588,2.95
		c-1.863,0.334-3.734-0.08-5.26-1.155l-15.74-11.186l0.842-0.546c6.014-3.901,7.733-11.967,3.833-17.981
		c-3.051-4.704-8.648-6.765-13.821-5.58c0.591-3.271-0.055-6.582-1.863-9.369c-1.883-2.905-4.795-4.903-8.198-5.629
		c-1.888-0.402-3.793-0.37-5.615,0.046c0.564-3.139-0.002-6.487-1.87-9.367c-3.051-4.703-8.648-6.765-13.82-5.58
		c0.59-3.27-0.056-6.582-1.863-9.368c-1.884-2.905-4.796-4.904-8.199-5.629c-3.406-0.727-6.878-0.088-9.782,1.795L38.945,92.876
		l-3.655-2.549l5.426-7.534l34.12-44.981c1.622,1.094,3.923,1.982,6.938,2.683c1.575,0.367,3.224,0.353,4.851,0.21
		c-0.256,0.902-0.524,1.837-0.808,2.812c-1.282,4.41-6.349,32.156-3.928,36.923c0.187,0.377,4.654,9.264,12.885,11.65
		c4.339,1.258,8.807,0.51,13.279-2.22c4.19-2.558,7.263-6.819,8.429-11.688c0.025-0.101,0.043-0.204,0.057-0.307l2.137-16.205
		c0.39-2.955,0.879-5.91,1.464-8.846l51.929,34.777l20.712,14.32C196.007,104.193,196.798,108.697,194.544,111.963 M187.858,90.954
		l-12.412-8.313l-4.332-2.995c-0.197-0.136-0.406-0.237-0.619-0.321l-48.949-32.78c0.089-0.358,0.179-0.716,0.271-1.073l0.983-3.698
		c0.425-1.601-0.526-3.243-2.126-3.67c-1.6-0.425-3.244,0.524-3.671,2.124l-0.649,2.425c-0.116,0.432-0.23,0.866-0.342,1.299
		l-0.827,3.115c-0.063,0.234-0.095,0.472-0.1,0.707c-0.989,4.332-1.779,8.723-2.357,13.111l-2.116,16.043
		c-0.822,3.268-2.888,6.113-5.685,7.821c-3.009,1.837-5.776,2.353-8.46,1.585c-5.283-1.516-8.669-7.556-9.153-8.467
		c-0.627-2.709,1.755-24.045,4.264-32.674c1.458-5.01,3.295-11.628,3.765-14.7c0.209-1.363,0.454-2.461,0.769-3.456
		c1.263-3.985,3.275-6.605,5.981-7.788c4.632-2.023,10.145,0.521,10.189,0.542c0.101,0.048,0.203,0.091,0.308,0.127l39.157,13.71
		c0.514,0.179,1.067,0.217,1.599,0.106c3.282-0.679,5.697-1.947,7.384-3.173l34.043,57.619L187.858,90.954z M203.802,90.111
		l-43.363-72.439L179.48,7.034l44.548,73.753L203.802,90.111z"/>
</g>
</svg>
